<?xml version="1.0" encoding="utf-8"  standalone="no"?>
<!DOCTYPE svg PUBLIC "-//W3C//DTD SVG 1.1//EN"
 "http://www.w3.org/Graphics/SVG/1.1/DTD/svg11.dtd">
<svg 
 width="600" height="450"
 viewBox="0 0 600 450"
 xmlns="http://www.w3.org/2000/svg"
 xmlns:xlink="http://www.w3.org/1999/xlink"
>

<title>Gnuplot</title>
<desc>Produced by GNUPLOT 5.0 patchlevel 4 </desc>

<g id="gnuplot_canvas">

<rect x="0" y="0" width="600" height="450" fill="none"/>
<defs>

	<circle id='gpDot' r='0.5' stroke-width='0.5'/>
	<path id='gpPt0' stroke-width='0.190' stroke='currentColor' d='M-1,0 h2 M0,-1 v2'/>
	<path id='gpPt1' stroke-width='0.190' stroke='currentColor' d='M-1,-1 L1,1 M1,-1 L-1,1'/>
	<path id='gpPt2' stroke-width='0.190' stroke='currentColor' d='M-1,0 L1,0 M0,-1 L0,1 M-1,-1 L1,1 M-1,1 L1,-1'/>
	<rect id='gpPt3' stroke-width='0.190' stroke='currentColor' x='-1' y='-1' width='2' height='2'/>
	<rect id='gpPt4' stroke-width='0.190' stroke='currentColor' fill='currentColor' x='-1' y='-1' width='2' height='2'/>
	<circle id='gpPt5' stroke-width='0.190' stroke='currentColor' cx='0' cy='0' r='1'/>
	<use xlink:href='#gpPt5' id='gpPt6' fill='currentColor' stroke='none'/>
	<path id='gpPt7' stroke-width='0.190' stroke='currentColor' d='M0,-1.33 L-1.33,0.67 L1.33,0.67 z'/>
	<use xlink:href='#gpPt7' id='gpPt8' fill='currentColor' stroke='none'/>
	<use xlink:href='#gpPt7' id='gpPt9' stroke='currentColor' transform='rotate(180)'/>
	<use xlink:href='#gpPt9' id='gpPt10' fill='currentColor' stroke='none'/>
	<use xlink:href='#gpPt3' id='gpPt11' stroke='currentColor' transform='rotate(45)'/>
	<use xlink:href='#gpPt11' id='gpPt12' fill='currentColor' stroke='none'/>
	<path id='gpPt13' stroke-width='0.190' stroke='currentColor' d='M0,1.330 L1.265,0.411 L0.782,-1.067 L-0.782,-1.076 L-1.265,0.411 z'/>
	<use xlink:href='#gpPt13' id='gpPt14' fill='currentColor' stroke='none'/>
	<filter id='textbox' filterUnits='objectBoundingBox' x='0' y='0' height='1' width='1'>
	  <feFlood flood-color='white' flood-opacity='1' result='bgnd'/>
	  <feComposite in='SourceGraphic' in2='bgnd' operator='atop'/>
	</filter>
	<filter id='greybox' filterUnits='objectBoundingBox' x='0' y='0' height='1' width='1'>
	  <feFlood flood-color='lightgrey' flood-opacity='1' result='grey'/>
	  <feComposite in='SourceGraphic' in2='grey' operator='atop'/>
	</filter>
</defs>
<g fill="none" color="white" stroke="currentColor" stroke-width="1.00" stroke-linecap="butt" stroke-linejoin="miter">
</g>
<g fill="none" color="black" stroke="currentColor" stroke-width="1.00" stroke-linecap="butt" stroke-linejoin="miter">
</g>
<g fill="none" color="gray" stroke="currentColor" stroke-width="1.00" stroke-linecap="butt" stroke-linejoin="miter">
	<path stroke='rgb(128, 128, 128)' stroke-dasharray='2,4' class="gridline"  d='M67.8,394.8 L570.8,394.8  '/></g>
<g fill="none" color="black" stroke="currentColor" stroke-width="1.00" stroke-linecap="butt" stroke-linejoin="miter">
	<path stroke='rgb(128, 128, 128)'  d='M67.8,394.8 L78.3,394.8  '/>	<g transform="translate(55.2,394.8) rotate(45)" stroke="none" fill="rgb(128,128,128)" font-family="Calibri" font-size="14.00"  text-anchor="end">
		<text><tspan font-family="Calibri" > 10</tspan></text>
	</g>
</g>
<g fill="none" color="black" stroke="currentColor" stroke-width="1.00" stroke-linecap="butt" stroke-linejoin="miter">
	<path stroke='rgb(128, 128, 128)'  d='M67.8,366.6 L73.0,366.6 M67.8,350.0 L73.0,350.0 M67.8,338.3 L73.0,338.3 M67.8,329.2 L73.0,329.2
		M67.8,321.8 L73.0,321.8 M67.8,315.5 L73.0,315.5 M67.8,310.1 L73.0,310.1 M67.8,305.3 L73.0,305.3
		 '/></g>
<g fill="none" color="gray" stroke="currentColor" stroke-width="1.00" stroke-linecap="butt" stroke-linejoin="miter">
	<path stroke='rgb(128, 128, 128)' stroke-dasharray='2,4' class="gridline"  d='M67.8,301.0 L570.8,301.0  '/></g>
<g fill="none" color="black" stroke="currentColor" stroke-width="1.00" stroke-linecap="butt" stroke-linejoin="miter">
	<path stroke='rgb(128, 128, 128)'  d='M67.8,301.0 L78.3,301.0  '/>	<g transform="translate(55.2,301.0) rotate(45)" stroke="none" fill="rgb(128,128,128)" font-family="Calibri" font-size="14.00"  text-anchor="end">
		<text><tspan font-family="Calibri" > 100</tspan></text>
	</g>
</g>
<g fill="none" color="black" stroke="currentColor" stroke-width="1.00" stroke-linecap="butt" stroke-linejoin="miter">
	<path stroke='rgb(128, 128, 128)'  d='M67.8,272.7 L73.0,272.7 M67.8,256.2 L73.0,256.2 M67.8,244.5 L73.0,244.5 M67.8,235.4 L73.0,235.4
		M67.8,228.0 L73.0,228.0 M67.8,221.7 L73.0,221.7 M67.8,216.2 L73.0,216.2 M67.8,211.4 L73.0,211.4
		 '/></g>
<g fill="none" color="gray" stroke="currentColor" stroke-width="1.00" stroke-linecap="butt" stroke-linejoin="miter">
	<path stroke='rgb(128, 128, 128)' stroke-dasharray='2,4' class="gridline"  d='M67.8,207.1 L570.8,207.1  '/></g>
<g fill="none" color="black" stroke="currentColor" stroke-width="1.00" stroke-linecap="butt" stroke-linejoin="miter">
	<path stroke='rgb(128, 128, 128)'  d='M67.8,207.1 L78.3,207.1  '/>	<g transform="translate(55.2,207.1) rotate(45)" stroke="none" fill="rgb(128,128,128)" font-family="Calibri" font-size="14.00"  text-anchor="end">
		<text><tspan font-family="Calibri" > 1000</tspan></text>
	</g>
</g>
<g fill="none" color="black" stroke="currentColor" stroke-width="1.00" stroke-linecap="butt" stroke-linejoin="miter">
	<path stroke='rgb(128, 128, 128)'  d='M67.8,178.9 L73.0,178.9 M67.8,162.4 L73.0,162.4 M67.8,150.7 L73.0,150.7 M67.8,141.6 L73.0,141.6
		M67.8,134.1 L73.0,134.1 M67.8,127.9 L73.0,127.9 M67.8,122.4 L73.0,122.4 M67.8,117.6 L73.0,117.6
		 '/></g>
<g fill="none" color="gray" stroke="currentColor" stroke-width="1.00" stroke-linecap="butt" stroke-linejoin="miter">
	<path stroke='rgb(128, 128, 128)' stroke-dasharray='2,4' class="gridline"  d='M67.8,113.3 L77.5,113.3 M194.7,113.3 L570.8,113.3  '/></g>
<g fill="none" color="black" stroke="currentColor" stroke-width="1.00" stroke-linecap="butt" stroke-linejoin="miter">
	<path stroke='rgb(128, 128, 128)'  d='M67.8,113.3 L78.3,113.3  '/>	<g transform="translate(55.2,113.3) rotate(45)" stroke="none" fill="rgb(128,128,128)" font-family="Calibri" font-size="14.00"  text-anchor="end">
		<text><tspan font-family="Calibri" > 10000</tspan></text>
	</g>
</g>
<g fill="none" color="black" stroke="currentColor" stroke-width="1.00" stroke-linecap="butt" stroke-linejoin="miter">
	<path stroke='rgb(128, 128, 128)'  d='M67.8,85.1 L73.0,85.1 M67.8,68.6 L73.0,68.6 M67.8,56.8 L73.0,56.8 M67.8,47.7 L73.0,47.7
		M67.8,40.3 L73.0,40.3 M67.8,34.0 L73.0,34.0 M67.8,28.6 L73.0,28.6 M67.8,23.8 L73.0,23.8
		 '/></g>
<g fill="none" color="gray" stroke="currentColor" stroke-width="1.00" stroke-linecap="butt" stroke-linejoin="miter">
	<path stroke='rgb(128, 128, 128)' stroke-dasharray='2,4' class="gridline"  d='M67.8,19.5 L570.8,19.5  '/></g>
<g fill="none" color="black" stroke="currentColor" stroke-width="1.00" stroke-linecap="butt" stroke-linejoin="miter">
	<path stroke='rgb(128, 128, 128)'  d='M67.8,19.5 L78.3,19.5  '/>	<g transform="translate(55.2,19.5) rotate(45)" stroke="none" fill="rgb(128,128,128)" font-family="Calibri" font-size="14.00"  text-anchor="end">
		<text><tspan font-family="Calibri" > 100000</tspan></text>
	</g>
</g>
<g fill="none" color="black" stroke="currentColor" stroke-width="1.00" stroke-linecap="butt" stroke-linejoin="miter">
	<path stroke='rgb(128, 128, 128)'  d='M67.8,394.8 L67.8,384.3  '/>	<g transform="translate(73.0,404.5) rotate(45)" stroke="none" fill="rgb(128,128,128)" font-family="Calibri" font-size="14.00"  text-anchor="start">
		<text><tspan font-family="Calibri" >2000</tspan></text>
	</g>
</g>
<g fill="none" color="black" stroke="currentColor" stroke-width="1.00" stroke-linecap="butt" stroke-linejoin="miter">
	<path stroke='rgb(128, 128, 128)'  d='M94.3,394.8 L94.3,384.3  '/>	<g transform="translate(99.5,404.5) rotate(45)" stroke="none" fill="rgb(128,128,128)" font-family="Calibri" font-size="14.00"  text-anchor="start">
		<text><tspan font-family="Calibri" >3000</tspan></text>
	</g>
</g>
<g fill="none" color="black" stroke="currentColor" stroke-width="1.00" stroke-linecap="butt" stroke-linejoin="miter">
	<path stroke='rgb(128, 128, 128)'  d='M120.7,394.8 L120.7,384.3  '/>	<g transform="translate(125.9,404.5) rotate(45)" stroke="none" fill="rgb(128,128,128)" font-family="Calibri" font-size="14.00"  text-anchor="start">
		<text><tspan font-family="Calibri" >4000</tspan></text>
	</g>
</g>
<g fill="none" color="black" stroke="currentColor" stroke-width="1.00" stroke-linecap="butt" stroke-linejoin="miter">
	<path stroke='rgb(128, 128, 128)'  d='M147.2,394.8 L147.2,384.3  '/>	<g transform="translate(152.4,404.5) rotate(45)" stroke="none" fill="rgb(128,128,128)" font-family="Calibri" font-size="14.00"  text-anchor="start">
		<text><tspan font-family="Calibri" >5000</tspan></text>
	</g>
</g>
<g fill="none" color="black" stroke="currentColor" stroke-width="1.00" stroke-linecap="butt" stroke-linejoin="miter">
	<path stroke='rgb(128, 128, 128)'  d='M173.7,394.8 L173.7,384.3  '/>	<g transform="translate(178.9,404.5) rotate(45)" stroke="none" fill="rgb(128,128,128)" font-family="Calibri" font-size="14.00"  text-anchor="start">
		<text><tspan font-family="Calibri" >6000</tspan></text>
	</g>
</g>
<g fill="none" color="black" stroke="currentColor" stroke-width="1.00" stroke-linecap="butt" stroke-linejoin="miter">
	<path stroke='rgb(128, 128, 128)'  d='M200.2,394.8 L200.2,384.3  '/>	<g transform="translate(205.4,404.5) rotate(45)" stroke="none" fill="rgb(128,128,128)" font-family="Calibri" font-size="14.00"  text-anchor="start">
		<text><tspan font-family="Calibri" >7000</tspan></text>
	</g>
</g>
<g fill="none" color="black" stroke="currentColor" stroke-width="1.00" stroke-linecap="butt" stroke-linejoin="miter">
	<path stroke='rgb(128, 128, 128)'  d='M226.6,394.8 L226.6,384.3  '/>	<g transform="translate(231.8,404.5) rotate(45)" stroke="none" fill="rgb(128,128,128)" font-family="Calibri" font-size="14.00"  text-anchor="start">
		<text><tspan font-family="Calibri" >8000</tspan></text>
	</g>
</g>
<g fill="none" color="black" stroke="currentColor" stroke-width="1.00" stroke-linecap="butt" stroke-linejoin="miter">
	<path stroke='rgb(128, 128, 128)'  d='M253.1,394.8 L253.1,384.3  '/>	<g transform="translate(258.3,404.5) rotate(45)" stroke="none" fill="rgb(128,128,128)" font-family="Calibri" font-size="14.00"  text-anchor="start">
		<text><tspan font-family="Calibri" >9000</tspan></text>
	</g>
</g>
<g fill="none" color="black" stroke="currentColor" stroke-width="1.00" stroke-linecap="butt" stroke-linejoin="miter">
	<path stroke='rgb(128, 128, 128)'  d='M279.6,394.8 L279.6,384.3  '/>	<g transform="translate(284.8,404.5) rotate(45)" stroke="none" fill="rgb(128,128,128)" font-family="Calibri" font-size="14.00"  text-anchor="start">
		<text><tspan font-family="Calibri" >10000</tspan></text>
	</g>
</g>
<g fill="none" color="black" stroke="currentColor" stroke-width="1.00" stroke-linecap="butt" stroke-linejoin="miter">
	<path stroke='rgb(128, 128, 128)'  d='M306.1,394.8 L306.1,384.3  '/>	<g transform="translate(311.3,404.5) rotate(45)" stroke="none" fill="rgb(128,128,128)" font-family="Calibri" font-size="14.00"  text-anchor="start">
		<text><tspan font-family="Calibri" >11000</tspan></text>
	</g>
</g>
<g fill="none" color="black" stroke="currentColor" stroke-width="1.00" stroke-linecap="butt" stroke-linejoin="miter">
	<path stroke='rgb(128, 128, 128)'  d='M332.5,394.8 L332.5,384.3  '/>	<g transform="translate(337.7,404.5) rotate(45)" stroke="none" fill="rgb(128,128,128)" font-family="Calibri" font-size="14.00"  text-anchor="start">
		<text><tspan font-family="Calibri" >12000</tspan></text>
	</g>
</g>
<g fill="none" color="black" stroke="currentColor" stroke-width="1.00" stroke-linecap="butt" stroke-linejoin="miter">
	<path stroke='rgb(128, 128, 128)'  d='M359.0,394.8 L359.0,384.3  '/>	<g transform="translate(364.2,404.5) rotate(45)" stroke="none" fill="rgb(128,128,128)" font-family="Calibri" font-size="14.00"  text-anchor="start">
		<text><tspan font-family="Calibri" >13000</tspan></text>
	</g>
</g>
<g fill="none" color="black" stroke="currentColor" stroke-width="1.00" stroke-linecap="butt" stroke-linejoin="miter">
	<path stroke='rgb(128, 128, 128)'  d='M385.5,394.8 L385.5,384.3  '/>	<g transform="translate(390.7,404.5) rotate(45)" stroke="none" fill="rgb(128,128,128)" font-family="Calibri" font-size="14.00"  text-anchor="start">
		<text><tspan font-family="Calibri" >14000</tspan></text>
	</g>
</g>
<g fill="none" color="black" stroke="currentColor" stroke-width="1.00" stroke-linecap="butt" stroke-linejoin="miter">
	<path stroke='rgb(128, 128, 128)'  d='M412.0,394.8 L412.0,384.3  '/>	<g transform="translate(417.2,404.5) rotate(45)" stroke="none" fill="rgb(128,128,128)" font-family="Calibri" font-size="14.00"  text-anchor="start">
		<text><tspan font-family="Calibri" >15000</tspan></text>
	</g>
</g>
<g fill="none" color="black" stroke="currentColor" stroke-width="1.00" stroke-linecap="butt" stroke-linejoin="miter">
	<path stroke='rgb(128, 128, 128)'  d='M438.4,394.8 L438.4,384.3  '/>	<g transform="translate(443.6,404.5) rotate(45)" stroke="none" fill="rgb(128,128,128)" font-family="Calibri" font-size="14.00"  text-anchor="start">
		<text><tspan font-family="Calibri" >16000</tspan></text>
	</g>
</g>
<g fill="none" color="black" stroke="currentColor" stroke-width="1.00" stroke-linecap="butt" stroke-linejoin="miter">
	<path stroke='rgb(128, 128, 128)'  d='M464.9,394.8 L464.9,384.3  '/>	<g transform="translate(470.1,404.5) rotate(45)" stroke="none" fill="rgb(128,128,128)" font-family="Calibri" font-size="14.00"  text-anchor="start">
		<text><tspan font-family="Calibri" >17000</tspan></text>
	</g>
</g>
<g fill="none" color="black" stroke="currentColor" stroke-width="1.00" stroke-linecap="butt" stroke-linejoin="miter">
	<path stroke='rgb(128, 128, 128)'  d='M491.4,394.8 L491.4,384.3  '/>	<g transform="translate(496.6,404.5) rotate(45)" stroke="none" fill="rgb(128,128,128)" font-family="Calibri" font-size="14.00"  text-anchor="start">
		<text><tspan font-family="Calibri" >18000</tspan></text>
	</g>
</g>
<g fill="none" color="black" stroke="currentColor" stroke-width="1.00" stroke-linecap="butt" stroke-linejoin="miter">
	<path stroke='rgb(128, 128, 128)'  d='M517.9,394.8 L517.9,384.3  '/>	<g transform="translate(523.1,404.5) rotate(45)" stroke="none" fill="rgb(128,128,128)" font-family="Calibri" font-size="14.00"  text-anchor="start">
		<text><tspan font-family="Calibri" >19000</tspan></text>
	</g>
</g>
<g fill="none" color="black" stroke="currentColor" stroke-width="1.00" stroke-linecap="butt" stroke-linejoin="miter">
	<path stroke='rgb(128, 128, 128)'  d='M544.3,394.8 L544.3,384.3  '/>	<g transform="translate(549.5,404.5) rotate(45)" stroke="none" fill="rgb(128,128,128)" font-family="Calibri" font-size="14.00"  text-anchor="start">
		<text><tspan font-family="Calibri" >20000</tspan></text>
	</g>
</g>
<g fill="none" color="black" stroke="currentColor" stroke-width="1.00" stroke-linecap="butt" stroke-linejoin="miter">
	<path stroke='rgb(128, 128, 128)'  d='M570.8,394.8 L570.8,384.3  '/>	<g transform="translate(576.0,404.5) rotate(45)" stroke="none" fill="rgb(128,128,128)" font-family="Calibri" font-size="14.00"  text-anchor="start">
		<text><tspan font-family="Calibri" >21000</tspan></text>
	</g>
</g>
<g fill="none" color="black" stroke="currentColor" stroke-width="1.00" stroke-linecap="butt" stroke-linejoin="miter">
</g>
<g fill="none" color="black" stroke="currentColor" stroke-width="1.00" stroke-linecap="butt" stroke-linejoin="miter">
	<path stroke='rgb(128, 128, 128)'  d='M67.8,19.5 L67.8,394.8 L570.8,394.8 M570.8,19.5 M67.8,19.5  '/></g>
<g fill="none" color="black" stroke="currentColor" stroke-width="1.00" stroke-linecap="butt" stroke-linejoin="miter">
</g>
	<g id="gnuplot_plot_1" ><title>hubs</title>
<g fill="none" color="white" stroke="rgb(128, 128, 128)" stroke-width="2.50" stroke-linecap="butt" stroke-linejoin="miter">
</g>
<g fill="none" color="black" stroke="currentColor" stroke-width="2.50" stroke-linecap="butt" stroke-linejoin="miter">
	<g transform="translate(146.2,45.7)" stroke="none" fill="black" font-family="Calibri" font-size="14.00"  text-anchor="start">
		<text><tspan font-family="Calibri" >hubs</tspan></text>
	</g>
</g>
<g fill="none" color="black" stroke="currentColor" stroke-width="2.50" stroke-linecap="butt" stroke-linejoin="miter">
	<path stroke='rgb(102, 166,  30)'  d='M87.2,40.5 L136.5,40.5 M67.8,392.3 L94.3,362.3 L120.7,345.3 L147.2,338.4 L173.7,308.5 L200.2,311.5
		L226.6,318.1 L253.1,291.5 L279.6,293.5 L306.1,290.5 L332.5,289.6 L359.0,291.8 L385.5,280.4 L412.0,276.7
		L438.4,273.7 L464.9,277.7 L491.4,242.7 L517.9,266.2 L544.3,262.5 L570.8,263.5  '/>	<use xlink:href='#gpPt6' transform='translate(67.8,392.3) scale(6.30)' color='rgb(102, 166,  30)'/>
	<use xlink:href='#gpPt6' transform='translate(94.3,362.3) scale(6.30)' color='rgb(102, 166,  30)'/>
	<use xlink:href='#gpPt6' transform='translate(120.7,345.3) scale(6.30)' color='rgb(102, 166,  30)'/>
	<use xlink:href='#gpPt6' transform='translate(147.2,338.4) scale(6.30)' color='rgb(102, 166,  30)'/>
	<use xlink:href='#gpPt6' transform='translate(173.7,308.5) scale(6.30)' color='rgb(102, 166,  30)'/>
	<use xlink:href='#gpPt6' transform='translate(200.2,311.5) scale(6.30)' color='rgb(102, 166,  30)'/>
	<use xlink:href='#gpPt6' transform='translate(226.6,318.1) scale(6.30)' color='rgb(102, 166,  30)'/>
	<use xlink:href='#gpPt6' transform='translate(253.1,291.5) scale(6.30)' color='rgb(102, 166,  30)'/>
	<use xlink:href='#gpPt6' transform='translate(279.6,293.5) scale(6.30)' color='rgb(102, 166,  30)'/>
	<use xlink:href='#gpPt6' transform='translate(306.1,290.5) scale(6.30)' color='rgb(102, 166,  30)'/>
	<use xlink:href='#gpPt6' transform='translate(332.5,289.6) scale(6.30)' color='rgb(102, 166,  30)'/>
	<use xlink:href='#gpPt6' transform='translate(359.0,291.8) scale(6.30)' color='rgb(102, 166,  30)'/>
	<use xlink:href='#gpPt6' transform='translate(385.5,280.4) scale(6.30)' color='rgb(102, 166,  30)'/>
	<use xlink:href='#gpPt6' transform='translate(412.0,276.7) scale(6.30)' color='rgb(102, 166,  30)'/>
	<use xlink:href='#gpPt6' transform='translate(438.4,273.7) scale(6.30)' color='rgb(102, 166,  30)'/>
	<use xlink:href='#gpPt6' transform='translate(464.9,277.7) scale(6.30)' color='rgb(102, 166,  30)'/>
	<use xlink:href='#gpPt6' transform='translate(491.4,242.7) scale(6.30)' color='rgb(102, 166,  30)'/>
	<use xlink:href='#gpPt6' transform='translate(517.9,266.2) scale(6.30)' color='rgb(102, 166,  30)'/>
	<use xlink:href='#gpPt6' transform='translate(544.3,262.5) scale(6.30)' color='rgb(102, 166,  30)'/>
	<use xlink:href='#gpPt6' transform='translate(570.8,263.5) scale(6.30)' color='rgb(102, 166,  30)'/>
	<use xlink:href='#gpPt6' transform='translate(111.9,40.5) scale(6.30)' color='rgb(102, 166,  30)'/>
</g>
	</g>
	<g id="gnuplot_plot_2" ><title>legs</title>
<g fill="none" color="black" stroke="currentColor" stroke-width="2.50" stroke-linecap="butt" stroke-linejoin="miter">
	<g transform="translate(146.2,66.7)" stroke="none" fill="black" font-family="Calibri" font-size="14.00"  text-anchor="start">
		<text><tspan font-family="Calibri" >legs</tspan></text>
	</g>
</g>
<g fill="none" color="black" stroke="currentColor" stroke-width="2.50" stroke-linecap="butt" stroke-linejoin="miter">
	<path stroke='rgb(231,  41, 138)'  d='M87.2,61.5 L136.5,61.5 M67.8,376.8 L94.3,364.0 L120.7,335.6 L147.2,343.6 L173.7,329.6 L200.2,334.5
		L226.6,332.5 L253.1,324.2 L279.6,322.7 L306.1,330.9 L332.5,314.3 L359.0,321.1 L385.5,296.8 L412.0,297.5
		L438.4,301.3 L464.9,296.4 L491.4,291.8 L517.9,286.1 L544.3,285.1 L570.8,284.8  '/>	<use xlink:href='#gpPt4' transform='translate(67.8,376.8) scale(6.30)' color='rgb(231,  41, 138)'/>
	<use xlink:href='#gpPt4' transform='translate(94.3,364.0) scale(6.30)' color='rgb(231,  41, 138)'/>
	<use xlink:href='#gpPt4' transform='translate(120.7,335.6) scale(6.30)' color='rgb(231,  41, 138)'/>
	<use xlink:href='#gpPt4' transform='translate(147.2,343.6) scale(6.30)' color='rgb(231,  41, 138)'/>
	<use xlink:href='#gpPt4' transform='translate(173.7,329.6) scale(6.30)' color='rgb(231,  41, 138)'/>
	<use xlink:href='#gpPt4' transform='translate(200.2,334.5) scale(6.30)' color='rgb(231,  41, 138)'/>
	<use xlink:href='#gpPt4' transform='translate(226.6,332.5) scale(6.30)' color='rgb(231,  41, 138)'/>
	<use xlink:href='#gpPt4' transform='translate(253.1,324.2) scale(6.30)' color='rgb(231,  41, 138)'/>
	<use xlink:href='#gpPt4' transform='translate(279.6,322.7) scale(6.30)' color='rgb(231,  41, 138)'/>
	<use xlink:href='#gpPt4' transform='translate(306.1,330.9) scale(6.30)' color='rgb(231,  41, 138)'/>
	<use xlink:href='#gpPt4' transform='translate(332.5,314.3) scale(6.30)' color='rgb(231,  41, 138)'/>
	<use xlink:href='#gpPt4' transform='translate(359.0,321.1) scale(6.30)' color='rgb(231,  41, 138)'/>
	<use xlink:href='#gpPt4' transform='translate(385.5,296.8) scale(6.30)' color='rgb(231,  41, 138)'/>
	<use xlink:href='#gpPt4' transform='translate(412.0,297.5) scale(6.30)' color='rgb(231,  41, 138)'/>
	<use xlink:href='#gpPt4' transform='translate(438.4,301.3) scale(6.30)' color='rgb(231,  41, 138)'/>
	<use xlink:href='#gpPt4' transform='translate(464.9,296.4) scale(6.30)' color='rgb(231,  41, 138)'/>
	<use xlink:href='#gpPt4' transform='translate(491.4,291.8) scale(6.30)' color='rgb(231,  41, 138)'/>
	<use xlink:href='#gpPt4' transform='translate(517.9,286.1) scale(6.30)' color='rgb(231,  41, 138)'/>
	<use xlink:href='#gpPt4' transform='translate(544.3,285.1) scale(6.30)' color='rgb(231,  41, 138)'/>
	<use xlink:href='#gpPt4' transform='translate(570.8,284.8) scale(6.30)' color='rgb(231,  41, 138)'/>
	<use xlink:href='#gpPt4' transform='translate(111.9,61.5) scale(6.30)' color='rgb(231,  41, 138)'/>
</g>
	</g>
	<g id="gnuplot_plot_3" ><title>multi</title>
<g fill="none" color="black" stroke="currentColor" stroke-width="2.50" stroke-linecap="butt" stroke-linejoin="miter">
	<g transform="translate(146.2,87.7)" stroke="none" fill="black" font-family="Calibri" font-size="14.00"  text-anchor="start">
		<text><tspan font-family="Calibri" >multi</tspan></text>
	</g>
</g>
<g fill="none" color="black" stroke="currentColor" stroke-width="2.50" stroke-linecap="butt" stroke-linejoin="miter">
	<path stroke='rgb(217,  95,   2)'  d='M87.2,82.5 L136.5,82.5 M67.8,298.2 L94.3,255.4 L120.7,225.5 L147.2,208.9 L173.7,169.1 L200.2,180.1
		L226.6,175.2 L253.1,125.9 L279.6,116.0 L306.1,116.5 L332.5,104.4 L359.0,101.7 L385.5,94.1 L412.0,75.2
		L438.4,72.7 L464.9,66.1 L491.4,36.5 L517.9,37.4 L544.3,41.1 L570.8,49.8  '/>	<use xlink:href='#gpPt1' transform='translate(67.8,298.2) scale(6.30)' color='rgb(217,  95,   2)'/>
	<use xlink:href='#gpPt1' transform='translate(94.3,255.4) scale(6.30)' color='rgb(217,  95,   2)'/>
	<use xlink:href='#gpPt1' transform='translate(120.7,225.5) scale(6.30)' color='rgb(217,  95,   2)'/>
	<use xlink:href='#gpPt1' transform='translate(147.2,208.9) scale(6.30)' color='rgb(217,  95,   2)'/>
	<use xlink:href='#gpPt1' transform='translate(173.7,169.1) scale(6.30)' color='rgb(217,  95,   2)'/>
	<use xlink:href='#gpPt1' transform='translate(200.2,180.1) scale(6.30)' color='rgb(217,  95,   2)'/>
	<use xlink:href='#gpPt1' transform='translate(226.6,175.2) scale(6.30)' color='rgb(217,  95,   2)'/>
	<use xlink:href='#gpPt1' transform='translate(253.1,125.9) scale(6.30)' color='rgb(217,  95,   2)'/>
	<use xlink:href='#gpPt1' transform='translate(279.6,116.0) scale(6.30)' color='rgb(217,  95,   2)'/>
	<use xlink:href='#gpPt1' transform='translate(306.1,116.5) scale(6.30)' color='rgb(217,  95,   2)'/>
	<use xlink:href='#gpPt1' transform='translate(332.5,104.4) scale(6.30)' color='rgb(217,  95,   2)'/>
	<use xlink:href='#gpPt1' transform='translate(359.0,101.7) scale(6.30)' color='rgb(217,  95,   2)'/>
	<use xlink:href='#gpPt1' transform='translate(385.5,94.1) scale(6.30)' color='rgb(217,  95,   2)'/>
	<use xlink:href='#gpPt1' transform='translate(412.0,75.2) scale(6.30)' color='rgb(217,  95,   2)'/>
	<use xlink:href='#gpPt1' transform='translate(438.4,72.7) scale(6.30)' color='rgb(217,  95,   2)'/>
	<use xlink:href='#gpPt1' transform='translate(464.9,66.1) scale(6.30)' color='rgb(217,  95,   2)'/>
	<use xlink:href='#gpPt1' transform='translate(491.4,36.5) scale(6.30)' color='rgb(217,  95,   2)'/>
	<use xlink:href='#gpPt1' transform='translate(517.9,37.4) scale(6.30)' color='rgb(217,  95,   2)'/>
	<use xlink:href='#gpPt1' transform='translate(544.3,41.1) scale(6.30)' color='rgb(217,  95,   2)'/>
	<use xlink:href='#gpPt1' transform='translate(570.8,49.8) scale(6.30)' color='rgb(217,  95,   2)'/>
	<use xlink:href='#gpPt1' transform='translate(111.9,82.5) scale(6.30)' color='rgb(217,  95,   2)'/>
</g>
	</g>
	<g id="gnuplot_plot_4" ><title>one</title>
<g fill="none" color="black" stroke="currentColor" stroke-width="2.50" stroke-linecap="butt" stroke-linejoin="miter">
	<g transform="translate(146.2,108.7)" stroke="none" fill="black" font-family="Calibri" font-size="14.00"  text-anchor="start">
		<text><tspan font-family="Calibri" >one</tspan></text>
	</g>
</g>
<g fill="none" color="black" stroke="currentColor" stroke-width="2.50" stroke-linecap="butt" stroke-linejoin="miter">
	<path stroke='rgb(117, 112, 179)'  d='M87.2,103.5 L136.5,103.5 M67.8,384.1 L94.3,348.2 L120.7,320.1 L147.2,302.7 L173.7,288.5 L200.2,295.3
		L226.6,291.2 L253.1,277.8 L279.6,272.2 L306.1,271.8 L332.5,257.3 L359.0,259.7 L385.5,249.8 L412.0,231.4
		L438.4,227.4 L464.9,241.8 L491.4,238.9 L517.9,234.6 L544.3,235.3 L570.8,224.6  '/>	<use xlink:href='#gpPt2' transform='translate(67.8,384.1) scale(6.30)' color='rgb(117, 112, 179)'/>
	<use xlink:href='#gpPt2' transform='translate(94.3,348.2) scale(6.30)' color='rgb(117, 112, 179)'/>
	<use xlink:href='#gpPt2' transform='translate(120.7,320.1) scale(6.30)' color='rgb(117, 112, 179)'/>
	<use xlink:href='#gpPt2' transform='translate(147.2,302.7) scale(6.30)' color='rgb(117, 112, 179)'/>
	<use xlink:href='#gpPt2' transform='translate(173.7,288.5) scale(6.30)' color='rgb(117, 112, 179)'/>
	<use xlink:href='#gpPt2' transform='translate(200.2,295.3) scale(6.30)' color='rgb(117, 112, 179)'/>
	<use xlink:href='#gpPt2' transform='translate(226.6,291.2) scale(6.30)' color='rgb(117, 112, 179)'/>
	<use xlink:href='#gpPt2' transform='translate(253.1,277.8) scale(6.30)' color='rgb(117, 112, 179)'/>
	<use xlink:href='#gpPt2' transform='translate(279.6,272.2) scale(6.30)' color='rgb(117, 112, 179)'/>
	<use xlink:href='#gpPt2' transform='translate(306.1,271.8) scale(6.30)' color='rgb(117, 112, 179)'/>
	<use xlink:href='#gpPt2' transform='translate(332.5,257.3) scale(6.30)' color='rgb(117, 112, 179)'/>
	<use xlink:href='#gpPt2' transform='translate(359.0,259.7) scale(6.30)' color='rgb(117, 112, 179)'/>
	<use xlink:href='#gpPt2' transform='translate(385.5,249.8) scale(6.30)' color='rgb(117, 112, 179)'/>
	<use xlink:href='#gpPt2' transform='translate(412.0,231.4) scale(6.30)' color='rgb(117, 112, 179)'/>
	<use xlink:href='#gpPt2' transform='translate(438.4,227.4) scale(6.30)' color='rgb(117, 112, 179)'/>
	<use xlink:href='#gpPt2' transform='translate(464.9,241.8) scale(6.30)' color='rgb(117, 112, 179)'/>
	<use xlink:href='#gpPt2' transform='translate(491.4,238.9) scale(6.30)' color='rgb(117, 112, 179)'/>
	<use xlink:href='#gpPt2' transform='translate(517.9,234.6) scale(6.30)' color='rgb(117, 112, 179)'/>
	<use xlink:href='#gpPt2' transform='translate(544.3,235.3) scale(6.30)' color='rgb(117, 112, 179)'/>
	<use xlink:href='#gpPt2' transform='translate(570.8,224.6) scale(6.30)' color='rgb(117, 112, 179)'/>
	<use xlink:href='#gpPt2' transform='translate(111.9,103.5) scale(6.30)' color='rgb(117, 112, 179)'/>
</g>
	</g>
	<g id="gnuplot_plot_5" ><title>orig</title>
<g fill="none" color="black" stroke="currentColor" stroke-width="2.50" stroke-linecap="butt" stroke-linejoin="miter">
	<g transform="translate(146.2,129.7)" stroke="none" fill="black" font-family="Calibri" font-size="14.00"  text-anchor="start">
		<text><tspan font-family="Calibri" >orig</tspan></text>
	</g>
</g>
<g fill="none" color="black" stroke="currentColor" stroke-width="2.50" stroke-linecap="butt" stroke-linejoin="miter">
	<path stroke='rgb( 27, 158, 119)'  d='M87.2,124.5 L136.5,124.5 M67.8,325.7 L94.3,285.4 L120.7,251.9 L147.2,206.9 L173.7,192.7 L200.2,171.4
		L226.6,166.4 L253.1,155.9 L279.6,164.1 L306.1,158.4 L332.5,156.9 L359.0,152.8 L385.5,138.6 L412.0,141.9
		L438.4,140.1 L464.9,120.0 L491.4,92.9 L517.9,117.2 L544.3,118.2 L570.8,115.1  '/>	<use xlink:href='#gpPt0' transform='translate(67.8,325.7) scale(6.30)' color='rgb( 27, 158, 119)'/>
	<use xlink:href='#gpPt0' transform='translate(94.3,285.4) scale(6.30)' color='rgb( 27, 158, 119)'/>
	<use xlink:href='#gpPt0' transform='translate(120.7,251.9) scale(6.30)' color='rgb( 27, 158, 119)'/>
	<use xlink:href='#gpPt0' transform='translate(147.2,206.9) scale(6.30)' color='rgb( 27, 158, 119)'/>
	<use xlink:href='#gpPt0' transform='translate(173.7,192.7) scale(6.30)' color='rgb( 27, 158, 119)'/>
	<use xlink:href='#gpPt0' transform='translate(200.2,171.4) scale(6.30)' color='rgb( 27, 158, 119)'/>
	<use xlink:href='#gpPt0' transform='translate(226.6,166.4) scale(6.30)' color='rgb( 27, 158, 119)'/>
	<use xlink:href='#gpPt0' transform='translate(253.1,155.9) scale(6.30)' color='rgb( 27, 158, 119)'/>
	<use xlink:href='#gpPt0' transform='translate(279.6,164.1) scale(6.30)' color='rgb( 27, 158, 119)'/>
	<use xlink:href='#gpPt0' transform='translate(306.1,158.4) scale(6.30)' color='rgb( 27, 158, 119)'/>
	<use xlink:href='#gpPt0' transform='translate(332.5,156.9) scale(6.30)' color='rgb( 27, 158, 119)'/>
	<use xlink:href='#gpPt0' transform='translate(359.0,152.8) scale(6.30)' color='rgb( 27, 158, 119)'/>
	<use xlink:href='#gpPt0' transform='translate(385.5,138.6) scale(6.30)' color='rgb( 27, 158, 119)'/>
	<use xlink:href='#gpPt0' transform='translate(412.0,141.9) scale(6.30)' color='rgb( 27, 158, 119)'/>
	<use xlink:href='#gpPt0' transform='translate(438.4,140.1) scale(6.30)' color='rgb( 27, 158, 119)'/>
	<use xlink:href='#gpPt0' transform='translate(464.9,120.0) scale(6.30)' color='rgb( 27, 158, 119)'/>
	<use xlink:href='#gpPt0' transform='translate(491.4,92.9) scale(6.30)' color='rgb( 27, 158, 119)'/>
	<use xlink:href='#gpPt0' transform='translate(517.9,117.2) scale(6.30)' color='rgb( 27, 158, 119)'/>
	<use xlink:href='#gpPt0' transform='translate(544.3,118.2) scale(6.30)' color='rgb( 27, 158, 119)'/>
	<use xlink:href='#gpPt0' transform='translate(570.8,115.1) scale(6.30)' color='rgb( 27, 158, 119)'/>
	<use xlink:href='#gpPt0' transform='translate(111.9,124.5) scale(6.30)' color='rgb( 27, 158, 119)'/>
</g>
	</g>
<g fill="none" color="white" stroke="rgb( 27, 158, 119)" stroke-width="2.00" stroke-linecap="butt" stroke-linejoin="miter">
</g>
<g fill="none" color="black" stroke="currentColor" stroke-width="2.00" stroke-linecap="butt" stroke-linejoin="miter">
</g>
<g fill="none" color="black" stroke="black" stroke-width="1.00" stroke-linecap="butt" stroke-linejoin="miter">
</g>
<g fill="none" color="black" stroke="currentColor" stroke-width="1.00" stroke-linecap="butt" stroke-linejoin="miter">
</g>
</g>
</svg>

